-------------------------------------------------------------------------------
Test set: core.ChromosomesTest
-------------------------------------------------------------------------------
Tests run: 36, Failures: 0, Errors: 0, Skipped: 0, Time elapsed: 0.066 sec
