<?xml version="1.0" encoding="UTF-8" ?>
<testsuite tests="25" failures="0" name="analysis.HistoricalRecordTest" time="0.245" errors="0" skipped="0">
  <properties>
    <property name="java.runtime.name" value="Java(TM) SE Runtime Environment"/>
    <property name="sun.boot.library.path" value="/Library/Java/JavaVirtualMachines/jdk1.8.0_111.jdk/Contents/Home/jre/lib"/>
    <property name="java.vm.version" value="25.111-b14"/>
    <property name="user.country.format" value="AR"/>
    <property name="gopherProxySet" value="false"/>
    <property name="java.vm.vendor" value="Oracle Corporation"/>
    <property name="java.vendor.url" value="http://java.oracle.com/"/>
    <property name="path.separator" value=":"/>
    <property name="guice.disable.misplaced.annotation.check" value="true"/>
    <property name="java.vm.name" value="Java HotSpot(TM) 64-Bit Server VM"/>
    <property name="file.encoding.pkg" value="sun.io"/>
    <property name="user.country" value="US"/>
    <property name="sun.java.launcher" value="SUN_STANDARD"/>
    <property name="sun.os.patch.level" value="unknown"/>
    <property name="java.vm.specification.name" value="Java Virtual Machine Specification"/>
    <property name="user.dir" value="/Volumes/Data/Users/Alejandro/Documents/Proyectos/GF/GEPFramework"/>
    <property name="java.runtime.version" value="1.8.0_111-b14"/>
    <property name="java.awt.graphicsenv" value="sun.awt.CGraphicsEnvironment"/>
    <property name="java.endorsed.dirs" value="/Library/Java/JavaVirtualMachines/jdk1.8.0_111.jdk/Contents/Home/jre/lib/endorsed"/>
    <property name="os.arch" value="x86_64"/>
    <property name="java.io.tmpdir" value="/var/folders/90/7l8t6g0j34g4r_qw6dq2tp600000gn/T/"/>
    <property name="line.separator" value="
"/>
    <property name="java.vm.specification.vendor" value="Oracle Corporation"/>
    <property name="os.name" value="Mac OS X"/>
    <property name="maven.ext.class.path" value="/Applications/NetBeans/NetBeans 8.2.app/Contents/Resources/NetBeans/java/maven-nblib/netbeans-eventspy.jar"/>
    <property name="classworlds.conf" value="/Applications/NetBeans/NetBeans 8.2.app/Contents/Resources/NetBeans/java/maven/bin/m2.conf"/>
    <property name="sun.jnu.encoding" value="UTF-8"/>
    <property name="java.library.path" value="/Volumes/Data/Users/Alejandro/Library/Java/Extensions:/Library/Java/Extensions:/Network/Library/Java/Extensions:/System/Library/Java/Extensions:/usr/lib/java:."/>
    <property name="java.specification.name" value="Java Platform API Specification"/>
    <property name="java.class.version" value="52.0"/>
    <property name="sun.management.compiler" value="HotSpot 64-Bit Tiered Compilers"/>
    <property name="os.version" value="10.12.1"/>
    <property name="http.nonProxyHosts" value="local|*.local|169.254/16|*.169.254/16"/>
    <property name="user.home" value="/Volumes/Data/Users/Alejandro"/>
    <property name="user.timezone" value="America/Argentina/Tucuman"/>
    <property name="java.awt.printerjob" value="sun.lwawt.macosx.CPrinterJob"/>
    <property name="java.specification.version" value="1.8"/>
    <property name="file.encoding" value="UTF-8"/>
    <property name="user.name" value="alejandro"/>
    <property name="java.class.path" value="/Applications/NetBeans/NetBeans 8.2.app/Contents/Resources/NetBeans/java/maven/boot/plexus-classworlds-2.4.jar"/>
    <property name="java.vm.specification.version" value="1.8"/>
    <property name="sun.arch.data.model" value="64"/>
    <property name="java.home" value="/Library/Java/JavaVirtualMachines/jdk1.8.0_111.jdk/Contents/Home/jre"/>
    <property name="sun.java.command" value="org.codehaus.plexus.classworlds.launcher.Launcher -Dmaven.ext.class.path=/Applications/NetBeans/NetBeans 8.2.app/Contents/Resources/NetBeans/java/maven-nblib/netbeans-eventspy.jar install"/>
    <property name="java.specification.vendor" value="Oracle Corporation"/>
    <property name="user.language" value="en"/>
    <property name="awt.toolkit" value="sun.lwawt.macosx.LWCToolkit"/>
    <property name="java.vm.info" value="mixed mode"/>
    <property name="java.version" value="1.8.0_111"/>
    <property name="java.ext.dirs" value="/Volumes/Data/Users/Alejandro/Library/Java/Extensions:/Library/Java/JavaVirtualMachines/jdk1.8.0_111.jdk/Contents/Home/jre/lib/ext:/Library/Java/Extensions:/Network/Library/Java/Extensions:/System/Library/Java/Extensions:/usr/lib/java"/>
    <property name="sun.boot.class.path" value="/Library/Java/JavaVirtualMachines/jdk1.8.0_111.jdk/Contents/Home/jre/lib/resources.jar:/Library/Java/JavaVirtualMachines/jdk1.8.0_111.jdk/Contents/Home/jre/lib/rt.jar:/Library/Java/JavaVirtualMachines/jdk1.8.0_111.jdk/Contents/Home/jre/lib/sunrsasign.jar:/Library/Java/JavaVirtualMachines/jdk1.8.0_111.jdk/Contents/Home/jre/lib/jsse.jar:/Library/Java/JavaVirtualMachines/jdk1.8.0_111.jdk/Contents/Home/jre/lib/jce.jar:/Library/Java/JavaVirtualMachines/jdk1.8.0_111.jdk/Contents/Home/jre/lib/charsets.jar:/Library/Java/JavaVirtualMachines/jdk1.8.0_111.jdk/Contents/Home/jre/lib/jfr.jar:/Library/Java/JavaVirtualMachines/jdk1.8.0_111.jdk/Contents/Home/jre/classes"/>
    <property name="java.vendor" value="Oracle Corporation"/>
    <property name="maven.home" value="/Applications/NetBeans/NetBeans 8.2.app/Contents/Resources/NetBeans/java/maven"/>
    <property name="file.separator" value="/"/>
    <property name="java.vendor.url.bug" value="http://bugreport.sun.com/bugreport/"/>
    <property name="sun.cpu.endian" value="little"/>
    <property name="sun.io.unicode.encoding" value="UnicodeBig"/>
    <property name="socksNonProxyHosts" value="local|*.local|169.254/16|*.169.254/16"/>
    <property name="ftp.nonProxyHosts" value="local|*.local|169.254/16|*.169.254/16"/>
    <property name="sun.cpu.isalist" value=""/>
  </properties>
  <testcase classname="analysis.HistoricalRecordTest" name="getNodeTestWithAGreaterNodeNumber" time="0.005"/>
  <testcase classname="analysis.HistoricalRecordTest" name="addNewGenerationTest" time="0"/>
  <testcase classname="analysis.HistoricalRecordTest" name="getLastNodeOfGenerationTestWithDifferentGenerations" time="0"/>
  <testcase classname="analysis.HistoricalRecordTest" name="getNodeTestWithAGreaterNodeNumberButNotTheGreatest" time="0"/>
  <testcase classname="analysis.HistoricalRecordTest" name="addNodeTestSameHistorialSeveralTimesSameChromosome" time="0"/>
  <testcase classname="analysis.HistoricalRecordTest" name="getLastNodeOfGenerationTestWithGenerationNumberMinorThanZero" time="0.001"/>
  <testcase classname="analysis.HistoricalRecordTest" name="getLastNodeTestWithChromosomeIndexMinorThanZero" time="0"/>
  <testcase classname="analysis.HistoricalRecordTest" name="drawPatrilinealBranchTest" time="0"/>
  <testcase classname="analysis.HistoricalRecordTest" name="getNodeTest" time="0"/>
  <testcase classname="analysis.HistoricalRecordTest" name="getNodeTestWithChromosomeIndexGreaterThanTheAmmountOfChromosomes" time="0.001"/>
  <testcase classname="analysis.HistoricalRecordTest" name="addNewGenerationTestNodeNumberShouldBeZero" time="0"/>
  <testcase classname="analysis.HistoricalRecordTest" name="addNodeTestDifferentHistorial" time="0"/>
  <testcase classname="analysis.HistoricalRecordTest" name="getLastNodeOfGenerationTestWithChromosomeIndexMinorThanZero" time="0"/>
  <testcase classname="analysis.HistoricalRecordTest" name="addNewGenerationTestEachNewGenerationNodeShouldHaveOneParentAndViceversa" time="0"/>
  <testcase classname="analysis.HistoricalRecordTest" name="addNodeTestDifferentHistorialSeveralTimes" time="0"/>
  <testcase classname="analysis.HistoricalRecordTest" name="getNodeTestWithANodeNumberGreaterThanTheNumberOfNodes" time="0"/>
  <testcase classname="analysis.HistoricalRecordTest" name="addNodeTestSameHistorialSameChromosome" time="0"/>
  <testcase classname="analysis.HistoricalRecordTest" name="getNodeTestWithNodeNumberLessThanZero" time="0"/>
  <testcase classname="analysis.HistoricalRecordTest" name="getNodeTestWithGenerationNumberlessThanZero" time="0"/>
  <testcase classname="analysis.HistoricalRecordTest" name="addNewGenerationTestTwoGenerations" time="0"/>
  <testcase classname="analysis.HistoricalRecordTest" name="addNodeTestSameHistorialDifferentChromosome" time="0"/>
  <testcase classname="analysis.HistoricalRecordTest" name="getNodeTestWithChromosomeIndexMinorThanZero" time="0.001"/>
  <testcase classname="analysis.HistoricalRecordTest" name="addNewGenerationTestCompareGenerationNumbers" time="0"/>
  <testcase classname="analysis.HistoricalRecordTest" name="getNodeTestWithGenerationNumberGreaterThanNodesSize" time="0"/>
  <testcase classname="analysis.HistoricalRecordTest" name="getLastNodeTestWithChromosomeIndexGreaterThanAmmountOfChromosomes" time="0"/>
</testsuite>