0.0,0.28308576345443726
0.1,0.4608108401298523
0.2,0.5578150153160095
0.30000000000000004,0.5155918002128601
0.4,0.3379320204257965
0.5,0.0895114317536354
0.6,-0.1339031457901001
0.7,-0.2497234344482422
0.7999999999999999,-0.2266210913658142
0.8999999999999999,-0.09864740818738937
0.9999999999999999,0.051191624253988266
1.0999999999999999,0.1302221566438675
1.2,0.07989218831062317
1.3,-0.09639772027730942
1.4000000000000001,-0.33443111181259155
1.5000000000000002,-0.5387587547302246
1.6000000000000003,-0.6269220113754272
1.7000000000000004,-0.5676706433296204
1.8000000000000005,-0.3953346610069275
1.9000000000000006,-0.19364197552204132
2.0000000000000004,-0.056543394923210144
2.1000000000000005,-0.04434184357523918
2.2000000000000006,-0.15561361610889435
2.3000000000000007,-0.3280332088470459
2.400000000000001,-0.46771296858787537
2.500000000000001,-0.4933498799800873
2.600000000000001,-0.37455639243125916
2.700000000000001,-0.14646516740322113
2.800000000000001,0.10622134059667587
2.9000000000000012,0.2882981300354004
3.0000000000000013,0.3380075991153717
3.1000000000000014,0.25535848736763
3.2000000000000015,0.10160033404827118
3.3000000000000016,-0.029889751225709915
3.4000000000000017,-0.057699818164110184
3.5000000000000018,0.04914712533354759
3.600000000000002,0.2563224136829376
3.700000000000002,0.47987401485443115
3.800000000000002,0.6251458525657654
3.900000000000002,0.6307645440101624
4.000000000000002,0.49715641140937805
4.100000000000001,0.2862798571586609
4.200000000000001,0.09269975870847702
4.300000000000001,-4.877006576862186E-4
4.4,0.03970206528902054
4.5,0.18097436428070068
4.6,0.3411410450935364
4.699999999999999,0.42686760425567627
4.799999999999999,0.3776779770851135
4.899999999999999,0.19465668499469757
4.999999999999998,-0.05956601724028587
5.099999999999998,-0.28955039381980896
5.1999999999999975,-0.4110959470272064
5.299999999999997,-0.39004307985305786
5.399999999999997,-0.2577185034751892
5.4999999999999964,-0.09582241624593735
5.599999999999996,0.0021734677720814943
5.699999999999996,-0.024920159950852394
5.799999999999995,-0.17708763480186462
5.899999999999995,-0.39283180236816406
5.999999999999995,-0.5776791572570801
6.099999999999994,-0.6481593251228333
6.199999999999994,-0.5707225799560547
6.299999999999994,-0.37742242217063904
6.399999999999993,-0.15103843808174133
6.499999999999993,0.01341466698795557
6.5999999999999925,0.052819713950157166
6.699999999999992,-0.03487367182970047
6.799999999999992,-0.19005873799324036
6.8999999999999915,-0.31972771883010864
6.999999999999991,-0.3413688540458679
7.099999999999991,-0.22199365496635437
7.19999999999999,0.005943169351667166
7.29999999999999,0.2591773569583893
7.39999999999999,0.4419999420642853
7.499999999999989,0.4904482364654541
7.599999999999989,0.4016961455345154
7.699999999999989,0.23492945730686188
7.799999999999988,0.08330687135457993
7.899999999999988,0.030110498890280724
7.999999999999988,0.10957185178995132
8.099999999999987,0.2906744182109833
8.199999999999987,0.49150198698043823
8.299999999999986,0.6174348592758179
8.399999999999986,0.60535728931427
8.499999999999986,0.45322999358177185
8.599999999999985,0.22121496498584747
8.699999999999985,0.0038235625252127647
8.799999999999985,-0.11391090601682663
8.899999999999984,-0.09577447921037674
8.999999999999984,0.02913653664290905
9.099999999999984,0.1804671734571457
9.199999999999983,0.26462522149086
9.299999999999983,0.2190048098564148
9.399999999999983,0.04174751043319702
9.499999999999982,-0.2068694680929184
9.599999999999982,-0.4320782423019409
9.699999999999982,-0.5483989119529724
9.799999999999981,-0.519117534160614
9.89999999999998,-0.37303656339645386
9.99999999999998,-0.19068408012390137
10.09999999999998,-0.0664294883608818
10.19999999999998,-0.06420506536960602
10.29999999999998,-0.1875160038471222
10.399999999999979,-0.3777481019496918
10.499999999999979,-0.541564404964447
10.599999999999978,-0.5945959091186523
10.699999999999978,-0.5010197162628174
10.799999999999978,-0.29053688049316406
10.899999999999977,-0.04481641203165054
10.999999999999977,0.14027215540409088
11.099999999999977,0.19900691509246826
11.199999999999976,0.12604136765003204
11.299999999999976,-0.021594567224383354
11.399999999999975,-0.15164388716220856
11.499999999999975,-0.1802312284708023
11.599999999999975,-0.07155357301235199
11.699999999999974,0.1448950618505478
11.799999999999974,0.3876202404499054
11.899999999999974,0.5607461929321289
11.999999999999973,0.598398745059967
12.099999999999973,0.495132714509964
12.199999999999973,0.30820274353027344
12.299999999999972,0.13062147796154022
12.399999999999972,0.04759318381547928
12.499999999999972,0.09667116403579712
12.599999999999971,0.2502472400665283
12.69999999999997,0.42855045199394226
12.79999999999997,0.5370820164680481
12.89999999999997,0.5109996199607849
12.99999999999997,0.3457178473472595
13.09999999999997,0.09942592680454254
13.199999999999969,-0.13366065919399261
13.299999999999969,-0.26683279871940613
13.399999999999968,-0.2608849108219147
13.499999999999968,-0.14190810918807983
13.599999999999968,0.011418191716074944
13.699999999999967,0.10508980602025986
13.799999999999967,0.07418209314346313
13.899999999999967,-0.08635371178388596
13.999999999999966,-0.3188951015472412
14.099999999999966,-0.5296692252159119
14.199999999999966,-0.6322129368782043
14.299999999999965,-0.587483823299408
14.399999999999965,-0.4218944013118744
14.499999999999964,-0.2148534655570984
14.599999999999964,-0.06163420528173447
14.699999999999964,-0.02891220711171627
14.799999999999963,-0.12373663485050201
14.899999999999963,-0.29042303562164307
14.999999999999963,-0.4368147552013397
15.099999999999962,-0.47764283418655396
15.199999999999962,-0.37472739815711975
15.299999999999962,-0.1552373468875885
15.399999999999961,0.10052859038114548
15.499999999999961,0.2961438000202179
15.59999999999996,0.363569438457489
15.69999999999996,0.2944057881832123
15.79999999999996,0.14329664409160614
15.89999999999996,0.0019080097554251552
